<?xml version="1.0" encoding="utf-8"?>
<!-- Generator: Adobe Illustrator 20.1.0, SVG Export Plug-In . SVG Version: 6.00 Build 0)  -->
<svg version="1.1" id="Layer_1" xmlns="http://www.w3.org/2000/svg" xmlns:xlink="http://www.w3.org/1999/xlink" x="0px" y="0px"
	 viewBox="0 0 205.5 205.5" style="enable-background:new 0 0 205.5 205.5;" xml:space="preserve">
<style type="text/css">
	.st0{fill-rule:evenodd;clip-rule:evenodd;fill:#FFFFFF;}
	.st1{fill-rule:evenodd;clip-rule:evenodd;fill:#FFFFFF;}
	.st2{fill:#FFFFFF;}
	.st3{fill:#FFFFFF;}
</style>
<g>
	<path class="st1" d="M39.4,101.4l-5.5,10.9h137.7l-5.5-10.8H40.5C40.1,101.5,39.7,101.5,39.4,101.4L39.4,101.4z"/>
	<path class="st0" d="M172.1,124.1c0.4,0,0.7,0.2,0.7,0.5v12.3c0,0.3-0.3,0.5-0.7,0.5H33.4c-0.4,0-0.7-0.2-0.7-0.5v-12.3
		c0-0.3,0.3-0.5,0.7-0.5H172.1z"/>
</g>
<path class="st1" d="M34,113.6h137.6c0.6,0,1,0.4,1,0.9v7.3c0,0.5-0.5,0.9-1,0.9H34c-0.6,0-1-0.4-1-0.9v-7.3
	C33,114,33.4,113.6,34,113.6z"/>
</svg>
