<?xml version="1.0" encoding="utf-8"?>
<!-- Generator: Adobe Illustrator 20.1.0, SVG Export Plug-In . SVG Version: 6.00 Build 0)  -->
<svg version="1.1" id="Layer_1" xmlns="http://www.w3.org/2000/svg" xmlns:xlink="http://www.w3.org/1999/xlink" x="0px" y="0px"
	 viewBox="0 0 205.5 205.5" style="enable-background:new 0 0 205.5 205.5;" xml:space="preserve">
<style type="text/css">
	.st0{fill-rule:evenodd;clip-rule:evenodd;fill:#FFFFFF;}
	.st1{fill-rule:evenodd;clip-rule:evenodd;fill:#FFFFFF;}
	.st2{fill:#FFFFFF;}
	.st3{fill:#FFFFFF;}
</style>
<g>
	<g>
		<g>
			<path class="st0" d="M79.7,112.5H77v14c0,1.4-0.6,2.5-1.6,3.5l5.4,6.1c0.1,0.1,0.1,0.1,0.2,0.2c0.8-4.5,2.3-8.3,4.2-12.6
				c0.2-0.4,0.3-0.8,0.5-1.2c0.6-1.4,1.2-2.8,2-4c0.7-1.1,1.5-2,2.7-2.8c-0.4-0.3-0.8-0.5-1.4-0.6l-6.2-2
				C81.8,112.6,80.8,112.5,79.7,112.5L79.7,112.5z M85.5,153.8L85.5,153.8L85.5,153.8v3h-6.1v-3l-20.1,0l-20.1,0v3H33l0-3h-0.4
				c-1.1,0-1.9-0.8-2.1-1.8c-1.1-7.3-3-17.5-3.8-25.4c-0.5-4.5-1.3-8.1,0.4-10.2c1.1,0.7,1.9,1.6,2.6,2.6c0.8,1.1,1.3,2.4,1.9,3.8
				c0.2,0.4,0.3,0.8,0.5,1.2c2.1,4.9,3.8,9.1,4.4,14.4v3.3c0,1.5,1.2,2.7,2.7,2.7h40.2h0c1.5,0,2.7-1.2,2.7-2.7l0,0v-3.2h0
				c0.6-5.4,2.3-9.6,4.4-14.6c0.2-0.4,0.3-0.8,0.5-1.2c0.6-1.4,1.2-2.7,1.9-3.8c0.7-1,1.5-1.9,2.6-2.6c1.6,2.1,0.8,5.7,0.3,10.2
				c-0.9,7.9-2.8,18.1-3.8,25.4c-0.2,1-1,1.8-2.1,1.8H85.5L85.5,153.8z M41.4,112.5L41.4,112.5h-2.7c-1.1,0-2.1,0.1-3.2,0.5l-6.2,2
				c-0.5,0.2-1,0.4-1.4,0.6c1.1,0.8,2,1.7,2.7,2.8c0.8,1.2,1.4,2.6,2,4c0.2,0.4,0.3,0.8,0.5,1.2c1.8,4.2,3.3,7.9,4.1,12.2l5.5-6.2
				c-0.8-0.9-1.3-2-1.3-3.2V112.5z"/>
			<path class="st1" d="M75.7,126.4c0,0.9-0.4,1.8-1.1,2.5l0,0c-0.7,0.6-1.6,1-2.6,1H46.4c-1,0-1.9-0.4-2.6-1l0,0
				c-0.7-0.6-1.1-1.5-1.1-2.5c0-5.5,0-11,0-16.6c0-1.6,1.2-3,2.8-3h13.7h13.7c1.5,0,2.8,1.3,2.8,3C75.7,115.4,75.7,120.9,75.7,126.4
				L75.7,126.4z M74.4,130.6l4.3,4.9H39.2l4.5-5.1c0.8,0.5,1.7,0.8,2.7,0.8h0H72C72.9,131.2,73.7,131,74.4,130.6L74.4,130.6z
				 M37.6,141.8c0,0.8,0.7,1.5,1.5,1.5h40.2c0.8,0,1.5-0.7,1.5-1.5v-3.6c0-0.4-0.2-0.8-0.4-1c-0.3-0.3-0.6-0.4-1-0.4H39.1
				c-0.4,0-0.8,0.2-1,0.4c-0.3,0.3-0.4,0.6-0.4,1C37.6,139.4,37.6,140.6,37.6,141.8z"/>
		</g>
		<g>
			<path class="st0" d="M166.8,112.5h-2.7v14c0,1.4-0.6,2.5-1.6,3.5l5.4,6.1c0.1,0.1,0.1,0.1,0.2,0.2c0.8-4.5,2.3-8.3,4.2-12.6
				c0.2-0.4,0.3-0.8,0.5-1.2c0.6-1.4,1.2-2.8,2-4c0.7-1.1,1.5-2,2.7-2.8c-0.4-0.3-0.8-0.5-1.4-0.6l-6.2-2
				C168.9,112.6,167.9,112.5,166.8,112.5L166.8,112.5z M172.5,153.8L172.5,153.8L172.5,153.8v3h-6.1v-3l-20.1,0l-20.1,0v3H120l0-3
				h-0.4c-1.1,0-1.9-0.8-2.1-1.8c-1.1-7.3-3-17.5-3.8-25.4c-0.5-4.5-1.3-8.1,0.4-10.2c1.1,0.7,1.9,1.6,2.6,2.6
				c0.8,1.1,1.3,2.4,1.9,3.8c0.2,0.4,0.3,0.8,0.5,1.2c2.1,4.9,3.8,9.1,4.4,14.4v3.3c0,1.5,1.2,2.7,2.7,2.7h40.2h0
				c1.5,0,2.7-1.2,2.7-2.7l0,0v-3.2h0c0.6-5.4,2.3-9.6,4.4-14.6c0.2-0.4,0.3-0.8,0.5-1.2c0.6-1.4,1.2-2.7,1.9-3.8
				c0.7-1,1.5-1.9,2.6-2.6c1.6,2.1,0.8,5.7,0.3,10.2c-0.9,7.9-2.8,18.1-3.8,25.4c-0.2,1-1,1.8-2.1,1.8H172.5L172.5,153.8z
				 M128.4,112.5L128.4,112.5h-2.7c-1.1,0-2.1,0.1-3.2,0.5l-6.2,2c-0.5,0.2-1,0.4-1.4,0.6c1.1,0.8,2,1.7,2.7,2.8
				c0.8,1.2,1.4,2.6,2,4c0.2,0.4,0.3,0.8,0.5,1.2c1.8,4.2,3.3,7.9,4.1,12.2l5.5-6.2c-0.8-0.9-1.3-2-1.3-3.2V112.5z"/>
			<path class="st1" d="M162.8,126.4c0,0.9-0.4,1.8-1.1,2.5l0,0c-0.7,0.6-1.6,1-2.6,1h-25.7c-1,0-1.9-0.4-2.6-1l0,0
				c-0.7-0.6-1.1-1.5-1.1-2.5c0-5.5,0-11,0-16.6c0-1.6,1.2-3,2.8-3h13.7H160c1.5,0,2.8,1.3,2.8,3
				C162.8,115.4,162.8,120.9,162.8,126.4L162.8,126.4z M161.5,130.6l4.3,4.9h-39.6l4.5-5.1c0.8,0.5,1.7,0.8,2.7,0.8h0h25.7
				C159.9,131.2,160.8,131,161.5,130.6L161.5,130.6z M124.7,141.8c0,0.8,0.7,1.5,1.5,1.5h40.2c0.8,0,1.5-0.7,1.5-1.5v-3.6
				c0-0.4-0.2-0.8-0.4-1c-0.3-0.3-0.6-0.4-1-0.4h-40.2c-0.4,0-0.8,0.2-1,0.4c-0.3,0.3-0.4,0.6-0.4,1
				C124.7,139.4,124.7,140.6,124.7,141.8z"/>
		</g>
	</g>
	<g>
		<path class="st0" d="M38.6,57.2h3.5v14.1c0,1,0.4,1.9,1.1,2.6c0,0,0.2,0.2,0.2,0.2l-5.7,5l-0.2,0.2c-0.2-0.9-0.5-1.9-0.8-2.8
			c-0.9-2.9-2-5.6-3.2-8.6c-0.6-1.6-1.4-3.1-2.3-4.4c-0.9-1.3-1.9-2.4-3.3-3.2c0.4-0.2,0.8-0.4,1.4-0.6l6.5-1.9
			C36.8,57.3,37.6,57.2,38.6,57.2L38.6,57.2z M166.8,57.2h-3.5v14.1c0,1-0.4,1.9-1.1,2.6c0,0-0.2,0.2-0.2,0.2l5.7,5l0.2,0.2
			c0.2-0.9,0.5-1.9,0.8-2.8c0.9-2.9,2-5.6,3.2-8.6c0.6-1.6,1.4-3.1,2.3-4.4c0.9-1.3,1.9-2.4,3.3-3.2c-0.4-0.2-0.8-0.4-1.4-0.6
			l-6.5-1.9C168.7,57.3,167.9,57.2,166.8,57.2L166.8,57.2z M172.5,96.2l2.3,0c1-6.9,3.2-17.6,4.2-25.7c0.4-3,1.4-8.7-0.1-9.3
			c-1.3,0.8-2.4,1.8-3.2,3c-0.9,1.2-1.5,2.7-2.2,4.1c-1.2,3-2.3,5.7-3.2,8.5c-0.9,2.8-1.5,5.6-1.8,8.8c-0.1,1.1-1.1,2-2.2,2H124h0
			c-0.5,0-1-0.2-1.4-0.5c-0.4,0.3-0.8,0.5-1.4,0.5h0h-18.6H84.2h0c-0.5,0-1-0.2-1.4-0.5c-0.4,0.3-0.8,0.5-1.4,0.5h0H39.2
			c-1.1,0-2.1-0.8-2.2-2c-0.3-3.1-1-6-1.8-8.8c-0.9-2.8-2-5.5-3.2-8.5c-0.6-1.4-1.3-2.9-2.2-4.1C29,63,28,62,26.7,61.2
			c-1.6,0.6-0.5,6.3-0.1,9.3c1,8.1,3.2,18.8,4.2,25.7l2.3,0v2.8h6.3v-2.8h63.5h63.5v2.8h6.3V96.2z"/>
		<path class="st1" d="M80,48.7H45.7c-1.3,0-2,1.3-2,2.4v6c0,4.7,0,9.4,0,14.1c0,0.5,0.2,1,0.6,1.4c0.3,0.3,0.8,0.6,1.3,0.6
			c11.4,0,22.9,0,34.3,0c0.5,0,1.1-0.2,1.4-0.6c0.4-0.4,0.6-0.9,0.6-1.4c0-6.7,0-13.4,0-20.1C82,50,81.2,48.7,80,48.7L80,48.7z
			 M125.5,48.7h34.2c1.3,0,2,1.3,2,2.4v6c0,4.7,0,9.4,0,14.1c0,0.5-0.2,1-0.6,1.4c-0.3,0.3-0.8,0.6-1.3,0.6c-11.4,0-22.9,0-34.3,0
			c-0.5,0-1.1-0.2-1.4-0.6c-0.4-0.4-0.6-0.9-0.6-1.4c0-6.7,0-13.4,0-20.1C123.5,50,124.2,48.7,125.5,48.7L125.5,48.7z M160.6,74.8
			l4.2,3.6H124c-0.2,0-0.4,0-0.5,0.1l0-4.2c0,0,0.1,0.1,0.1,0.1c0.6,0.4,1.2,0.6,1.9,0.6h34.2C160,74.9,160.3,74.8,160.6,74.8
			L160.6,74.8z M121.9,71.3c0-6.7,0-13.4,0-20.1c0-1.1-0.8-2.4-2-2.4h-17.1H85.6c-1.3,0-2,1.3-2,2.4c0,6.7,0,13.4,0,20.1
			c0,0.6,0.2,1.1,0.6,1.4c0.4,0.4,0.9,0.6,1.4,0.6h17.1h17.1c0.5,0,1.1-0.2,1.4-0.6C121.6,72.3,121.9,71.8,121.9,71.3L121.9,71.3z
			 M102.7,78.4h18.6c0.2,0,0.4,0,0.6,0.1l0-4.2c-0.6,0.4-1.3,0.6-2,0.6h-17.1H85.6c-0.7,0-1.4-0.2-2-0.6l0,4.2
			c0.2-0.1,0.4-0.1,0.6-0.1H102.7L102.7,78.4z M121.9,85.4v-4.8c0-0.3-0.3-0.6-0.6-0.6h-18.6H84.2c-0.3,0-0.6,0.3-0.6,0.6v4.8
			c0,0.3,0.3,0.6,0.6,0.6h18.6h18.6C121.6,85.9,121.9,85.7,121.9,85.4L121.9,85.4z M124,80c-0.3,0-0.6,0.3-0.6,0.6v4.8
			c0,0.3,0.3,0.6,0.6,0.6h42.2c0.3,0,0.6-0.3,0.6-0.6v-4.8c0-0.3-0.3-0.6-0.6-0.6H124L124,80z M44.9,74.8l-4.2,3.6h40.7
			c0.2,0,0.4,0,0.5,0.1l0-4.2c0,0-0.1,0.1-0.1,0.1c-0.6,0.4-1.2,0.6-1.9,0.6H45.7C45.5,74.9,45.2,74.8,44.9,74.8L44.9,74.8z
			 M81.4,80c0.3,0,0.6,0.3,0.6,0.6v4.8c0,0.3-0.3,0.6-0.6,0.6H39.2c-0.3,0-0.6-0.3-0.6-0.6v-4.8c0-0.3,0.3-0.6,0.6-0.6H81.4z"/>
	</g>
</g>
</svg>
